epoc (ms),timestamp (+0200),elapsed (s),pitch (deg),roll (deg),yaw (deg),heading (deg)
1563205466944,2019-07-15T17.44.26.944,0.000,-4.399,13.201,-0.000,-0.000
1563205466954,2019-07-15T17.44.26.954,0.010,-4.400,13.194,0.007,0.007
1563205466964,2019-07-15T17.44.26.964,0.020,-4.400,13.194,0.007,0.007
1563205466973,2019-07-15T17.44.26.973,0.029,-4.400,13.194,0.007,0.007
1563205466983,2019-07-15T17.44.26.983,0.039,-4.400,13.194,0.007,0.007
1563205466994,2019-07-15T17.44.26.994,0.050,-4.400,13.194,0.007,0.007
1563205467004,2019-07-15T17.44.27.004,0.060,-4.400,13.194,0.007,0.007
1563205467013,2019-07-15T17.44.27.013,0.069,-4.400,13.194,0.007,0.007
1563205467023,2019-07-15T17.44.27.023,0.079,-4.400,13.194,0.007,0.007
1563205467033,2019-07-15T17.44.27.033,0.089,-4.400,13.194,0.007,0.007
1563205467043,2019-07-15T17.44.27.043,0.099,-4.400,13.194,0.007,0.007
1563205467052,2019-07-15T17.44.27.052,0.108,-4.400,13.194,0.007,0.007
1563205467062,2019-07-15T17.44.27.062,0.118,-4.400,13.194,0.007,0.007
1563205467073,2019-07-15T17.44.27.073,0.129,-4.400,13.194,0.007,0.007
1563205467083,2019-07-15T17.44.27.083,0.139,-4.400,13.194,0.007,0.007
1563205467092,2019-07-15T17.44.27.092,0.148,-4.400,13.194,0.007,0.007
1563205467102,2019-07-15T17.44.27.102,0.158,-4.400,13.194,0.007,0.007
1563205467112,2019-07-15T17.44.27.112,0.168,-4.400,13.194,0.007,0.007
1563205467122,2019-07-15T17.44.27.122,0.178,-4.400,13.194,0.007,0.007
1563205467131,2019-07-15T17.44.27.131,0.187,-4.400,13.194,0.007,0.007
1563205467141,2019-07-15T17.44.27.141,0.197,-4.401,13.194,0.007,0.007
1563205467152,2019-07-15T17.44.27.152,0.208,-4.401,13.194,0.007,0.007
1563205467162,2019-07-15T17.44.27.162,0.218,-4.401,13.194,0.007,0.007
1563205467171,2019-07-15T17.44.27.171,0.227,-4.401,13.194,0.007,0.007
1563205467181,2019-07-15T17.44.27.181,0.237,-4.401,13.194,0.007,0.007
1563205467191,2019-07-15T17.44.27.191,0.247,-4.401,13.194,0.007,0.007
1563205467202,2019-07-15T17.44.27.202,0.258,-4.401,13.194,0.007,0.007
1563205467210,2019-07-15T17.44.27.210,0.266,-4.401,13.194,0.007,0.007
1563205467221,2019-07-15T17.44.27.221,0.277,-4.401,13.194,0.007,0.007
1563205467231,2019-07-15T17.44.27.231,0.287,-4.401,13.194,0.007,0.007
1563205467241,2019-07-15T17.44.27.241,0.297,-4.401,13.194,0.007,0.007
1563205467250,2019-07-15T17.44.27.250,0.306,-4.401,13.194,0.007,0.007
1563205467260,2019-07-15T17.44.27.260,0.316,-4.401,13.194,0.007,0.007
1563205467270,2019-07-15T17.44.27.270,0.326,-4.401,13.194,0.007,0.007
1563205467281,2019-07-15T17.44.27.281,0.337,-4.401,13.194,0.007,0.007
1563205467289,2019-07-15T17.44.27.289,0.345,-4.401,13.194,0.007,0.007
1563205467300,2019-07-15T17.44.27.300,0.356,-4.401,13.194,0.007,0.007
1563205467310,2019-07-15T17.44.27.310,0.366,-4.401,13.194,0.007,0.007
1563205467320,2019-07-15T17.44.27.320,0.376,-4.401,13.194,0.007,0.007
1563205467329,2019-07-15T17.44.27.329,0.385,-4.401,13.194,0.007,0.007
1563205467339,2019-07-15T17.44.27.339,0.395,-4.401,13.194,0.007,0.007
1563205467349,2019-07-15T17.44.27.349,0.405,-4.401,13.194,0.007,0.007
1563205467360,2019-07-15T17.44.27.360,0.416,-4.401,13.194,0.007,0.007
1563205467370,2019-07-15T17.44.27.370,0.426,-4.401,13.194,0.007,0.007
1563205467379,2019-07-15T17.44.27.379,0.435,-4.401,13.194,0.007,0.007
1563205467389,2019-07-15T17.44.27.389,0.445,-4.401,13.194,0.007,0.007
1563205467399,2019-07-15T17.44.27.399,0.455,-4.401,13.194,0.007,0.007
1563205467410,2019-07-15T17.44.27.410,0.466,-4.401,13.194,0.007,0.007
1563205467418,2019-07-15T17.44.27.418,0.474,-4.401,13.194,0.007,0.007
1563205467429,2019-07-15T17.44.27.429,0.485,-4.401,13.194,0.007,0.007
1563205467439,2019-07-15T17.44.27.439,0.495,-4.401,13.195,0.007,0.007
1563205467449,2019-07-15T17.44.27.449,0.505,-4.401,13.195,0.007,0.007
1563205467458,2019-07-15T17.44.27.458,0.514,-4.401,13.195,0.007,0.007
1563205467468,2019-07-15T17.44.27.468,0.524,-4.407,13.195,0.006,0.006
1563205467478,2019-07-15T17.44.27.478,0.534,-4.407,13.195,0.006,0.006
1563205467489,2019-07-15T17.44.27.489,0.545,-4.407,13.195,0.006,0.006
1563205467497,2019-07-15T17.44.27.497,0.553,-4.407,13.195,0.006,0.006
1563205467508,2019-07-15T17.44.27.508,0.564,-4.407,13.195,0.006,0.006
1563205467518,2019-07-15T17.44.27.518,0.574,-4.407,13.195,0.006,0.006
1563205467528,2019-07-15T17.44.27.528,0.584,-4.407,13.195,0.006,0.006
1563205467537,2019-07-15T17.44.27.537,0.593,-4.407,13.195,0.006,0.006
1563205467547,2019-07-15T17.44.27.547,0.603,-4.407,13.195,0.006,0.006
1563205467557,2019-07-15T17.44.27.557,0.613,-4.407,13.195,0.006,0.006
1563205467568,2019-07-15T17.44.27.568,0.624,-4.407,13.195,0.006,0.006
1563205467578,2019-07-15T17.44.27.578,0.634,-4.407,13.195,0.006,0.006
1563205467587,2019-07-15T17.44.27.587,0.643,-4.414,13.195,0.006,0.006
1563205467597,2019-07-15T17.44.27.597,0.653,-4.414,13.195,0.006,0.006
1563205467607,2019-07-15T17.44.27.607,0.663,-4.414,13.195,0.006,0.006
1563205467616,2019-07-15T17.44.27.616,0.672,-4.414,13.195,0.006,0.006
1563205467626,2019-07-15T17.44.27.626,0.682,-4.414,13.195,0.006,0.006
1563205467637,2019-07-15T17.44.27.637,0.693,-4.414,13.194,0.006,0.006
1563205467647,2019-07-15T17.44.27.647,0.703,-4.414,13.194,0.006,0.006
1563205467656,2019-07-15T17.44.27.656,0.712,-4.414,13.194,0.006,0.006
1563205467666,2019-07-15T17.44.27.666,0.722,-4.414,13.194,0.006,0.006
1563205467676,2019-07-15T17.44.27.676,0.732,-4.414,13.195,0.006,0.006
1563205467686,2019-07-15T17.44.27.686,0.742,-4.414,13.194,0.006,0.006
1563205467695,2019-07-15T17.44.27.695,0.751,-4.414,13.194,0.006,0.006
1563205467705,2019-07-15T17.44.27.705,0.761,-4.414,13.195,0.006,0.006
1563205467716,2019-07-15T17.44.27.716,0.772,-4.414,13.195,0.006,0.006
1563205467726,2019-07-15T17.44.27.726,0.782,-4.414,13.195,0.006,0.006
1563205467736,2019-07-15T17.44.27.736,0.792,-4.414,13.195,0.006,0.006
1563205467745,2019-07-15T17.44.27.745,0.801,-4.414,13.195,0.006,0.006
1563205467755,2019-07-15T17.44.27.755,0.811,-4.414,13.195,0.006,0.006
1563205467765,2019-07-15T17.44.27.765,0.821,-4.414,13.195,0.006,0.006
1563205467776,2019-07-15T17.44.27.776,0.832,-4.414,13.195,0.006,0.006
1563205467785,2019-07-15T17.44.27.785,0.841,-4.414,13.195,0.006,0.006
1563205467795,2019-07-15T17.44.27.795,0.851,-4.414,13.195,0.006,0.006
1563205467805,2019-07-15T17.44.27.805,0.861,-4.414,13.195,0.006,0.006
1563205467815,2019-07-15T17.44.27.815,0.871,-4.414,13.195,0.006,0.006
1563205467824,2019-07-15T17.44.27.824,0.880,-4.414,13.195,0.006,0.006
1563205467834,2019-07-15T17.44.27.834,0.890,-4.414,13.195,0.006,0.006
1563205467845,2019-07-15T17.44.27.845,0.901,-4.414,13.195,0.006,0.006
1563205467855,2019-07-15T17.44.27.855,0.911,-4.414,13.195,0.006,0.006
1563205467864,2019-07-15T17.44.27.864,0.920,-4.414,13.195,0.006,0.006
1563205467874,2019-07-15T17.44.27.874,0.930,-4.414,13.195,0.006,0.006
1563205467884,2019-07-15T17.44.27.884,0.940,-4.414,13.195,0.006,0.006
1563205467894,2019-07-15T17.44.27.894,0.950,-4.414,13.195,0.006,0.006
1563205467903,2019-07-15T17.44.27.903,0.959,-4.414,13.195,0.006,0.006
1563205467913,2019-07-15T17.44.27.913,0.969,-4.414,13.195,0.006,0.006
1563205467924,2019-07-15T17.44.27.924,0.980,-4.414,13.195,0.006,0.006